{
    "page": 1,
    "total_results": 382649,
    "total_pages": 19133,
    "results": [
        {
            "vote_count": 1325,
            "id": 335983,
            "video": false,
            "vote_average": 6.6,
            "title": "Venom",
            "popularity": 473.089,
            "poster_path": "/2uNW4WbgBXL25BAbXGLnLqX71Sw.jpg",
            "original_language": "en",
            "original_title": "Venom",
            "genre_ids": [
                878,
                28,
                35,
                80
            ],
            "backdrop_path": "/VuukZLgaCrho2Ar8Scl9HtV3yD.jpg",
            "adult": false,
            "overview": "When Eddie Brock acquires the powers of a symbiote, he will have to release his alter-ego “Venom” to save his life.",
            "release_date": "2018-10-03"
        },
        {
            "vote_count": 738,
            "id": 332562,
            "video": false,
            "vote_average": 7.6,
            "title": "A Star Is Born",
            "popularity": 228.463,
            "poster_path": "/wrFpXMNBRj2PBiN4Z5kix51XaIZ.jpg",
            "original_language": "en",
            "original_title": "A Star Is Born",
            "genre_ids": [
                18,
                10402,
                10749
            ],
            "backdrop_path": "/840rbblaLc4SVxm8gF3DNdJ0YAE.jpg",
            "adult": false,
            "overview": "Seasoned musician Jackson Maine discovers—and falls in love with—struggling artist Ally. She has just about given up on her dream to make it big as a singer—until Jack coaxes her into the spotlight. But even as Ally's career takes off, the personal side of their relationship is breaking down, as Jack fights an ongoing battle with his own internal demons.",
            "release_date": "2018-10-03"
        },
        {
            "vote_count": 587,
            "id": 346910,
            "video": false,
            "vote_average": 5.3,
            "title": "The Predator",
            "popularity": 184.239,
            "poster_path": "/wMq9kQXTeQCHUZOG4fAe5cAxyUA.jpg",
            "original_language": "en",
            "original_title": "The Predator",
            "genre_ids": [
                27,
                878,
                28,
                53
            ],
            "backdrop_path": "/f4E0ocYeToEuXvczZv6QArrMDJ.jpg",
            "adult": false,
            "overview": "From the outer reaches of space to the small-town streets of suburbia, the hunt comes home. Now, the universe’s most lethal hunters are stronger, smarter and deadlier than ever before, having genetically upgraded themselves with DNA from other species. When a young boy accidentally triggers their return to Earth, only a ragtag crew of ex-soldiers and a disgruntled science teacher can prevent the end of the human race.",
            "release_date": "2018-09-13"
        },
        {
            "vote_count": 2813,
            "id": 363088,
            "video": false,
            "vote_average": 6.9,
            "title": "Ant-Man and the Wasp",
            "popularity": 165.054,
            "poster_path": "/rv1AWImgx386ULjcf62VYaW8zSt.jpg",
            "original_language": "en",
            "original_title": "Ant-Man and the Wasp",
            "genre_ids": [
                28,
                12,
                878,
                10749,
                35,
                10751
            ],
            "backdrop_path": "/6P3c80EOm7BodndGBUAJHHsHKrp.jpg",
            "adult": false,
            "overview": "Just when his time under house arrest is about to end, Scott Lang puts again his freedom at risk to help Hope van Dyne and Dr. Hank Pym dive into the quantum realm and try to accomplish, against time and any chance of success, a very dangerous rescue mission.",
            "release_date": "2018-07-04"
        },
        {
            "vote_count": 41,
            "id": 507569,
            "video": false,
            "vote_average": 5.9,
            "title": "The Seven Deadly Sins: Prisoners of the Sky",
            "popularity": 163.793,
            "poster_path": "/r6pPUVUKU5eIpYj4oEzidk5ZibB.jpg",
            "original_language": "ja",
            "original_title": "劇場版 七つの大罪 天空の囚われ人",
            "genre_ids": [
                28,
                12,
                14,
                16
            ],
            "backdrop_path": "/uKwOX7MtKlAaGeCQe6c4jc1vZpj.jpg",
            "adult": false,
            "overview": "Traveling in search of the rare ingredient, “sky fish”  Meliodas and Hawk arrive at a palace that floats above the clouds. The people there are busy preparing a ceremony, meant to protect their home from a ferocious beast that awakens once every 3,000 years. But before the ritual is complete, the Six Knights of Black—a Demon Clan army—removes the seal on the beast, threatening the lives of everyone in the Sky Palace.",
            "release_date": "2018-08-18"
        },
        {
            "vote_count": 157,
            "id": 369972,
            "video": false,
            "vote_average": 6.9,
            "title": "First Man",
            "popularity": 158.133,
            "poster_path": "/i91mfvFcPPlaegcbOyjGgiWfZzh.jpg",
            "original_language": "en",
            "original_title": "First Man",
            "genre_ids": [
                36,
                18
            ],
            "backdrop_path": "/z1FkoHO7bz40S4JiptWHSYoPpxq.jpg",
            "adult": false,
            "overview": "A look at the life of the astronaut, Neil Armstrong, and the legendary space mission that led him to become the first man to walk on the Moon on July 20, 1969.",
            "release_date": "2018-10-11"
        },
        {
            "vote_count": 1136,
            "id": 439079,
            "video": false,
            "vote_average": 5.8,
            "title": "The Nun",
            "popularity": 132.15,
            "poster_path": "/sFC1ElvoKGdHJIWRpNB3xWJ9lJA.jpg",
            "original_language": "en",
            "original_title": "The Nun",
            "genre_ids": [
                27,
                9648,
                53
            ],
            "backdrop_path": "/fgsHxz21B27hOOqQBiw9L6yWcM7.jpg",
            "adult": false,
            "overview": "When a young nun at a cloistered abbey in Romania takes her own life, a priest with a haunted past and a novitiate on the threshold of her final vows are sent by the Vatican to investigate. Together they uncover the order’s unholy secret. Risking not only their lives but their faith and their very souls, they confront a malevolent force in the form of the same demonic nun that first terrorized audiences in “The Conjuring 2,” as the abbey becomes a horrific battleground between the living and the damned.",
            "release_date": "2018-09-05"
        },
        {
            "vote_count": 166,
            "id": 463272,
            "video": false,
            "vote_average": 6.4,
            "title": "Johnny English Strikes Again",
            "popularity": 127.607,
            "poster_path": "/tCBxnZwLiY1BOKw3tH6AxHZdqPh.jpg",
            "original_language": "en",
            "original_title": "Johnny English Strikes Again",
            "genre_ids": [
                12,
                10751,
                28,
                35
            ],
            "backdrop_path": "/yCOLqh5MOGyYdo58Ap0aWvKop9h.jpg",
            "adult": false,
            "overview": "Disaster strikes when a criminal mastermind reveals the identities of all active undercover agents in Britain. The secret service can now rely on only one man—Johnny English. Currently teaching at a minor prep school, Johnny springs back into action to find the mysterious hacker. For this mission to succeed, he’ll need all of his skills—what few he has—as the man with yesterday’s analogue methods faces off against tomorrow’s digital technology.",
            "release_date": "2018-09-13"
        },
        {
            "vote_count": 8800,
            "id": 299536,
            "video": false,
            "vote_average": 8.3,
            "title": "Avengers: Infinity War",
            "popularity": 125.381,
            "poster_path": "/7WsyChQLEftFiDOVTGkv3hFpyyt.jpg",
            "original_language": "en",
            "original_title": "Avengers: Infinity War",
            "genre_ids": [
                12,
                878,
                28,
                14
            ],
            "backdrop_path": "/lmZFxXgJE3vgrciwuDib0N8CfQo.jpg",
            "adult": false,
            "overview": "As the Avengers and their allies have continued to protect the world from threats too large for any one hero to handle, a new danger has emerged from the cosmic shadows: Thanos. A despot of intergalactic infamy, his goal is to collect all six Infinity Stones, artifacts of unimaginable power, and use them to inflict his twisted will on all of reality. Everything the Avengers have fought for has led up to this moment - the fate of Earth and existence itself has never been more uncertain.",
            "release_date": "2018-04-25"
        },
        {
            "vote_count": 16,
            "id": 442062,
            "video": false,
            "vote_average": 6.3,
            "title": "Goosebumps 2: Haunted Halloween",
            "popularity": 117.667,
            "poster_path": "/8bcpki9GfXdXj9esFpPtlate8v0.jpg",
            "original_language": "en",
            "original_title": "Goosebumps 2: Haunted Halloween",
            "genre_ids": [
                12,
                35,
                14,
                27,
                10751
            ],
            "backdrop_path": "/9xYg9ScjGaO2HrLfOfYZirTrB3o.jpg",
            "adult": false,
            "overview": "Two boys face an onslaught from witches, monsters, ghouls and a talking dummy after they discover a mysterious book by author R. L. Stine.",
            "release_date": "2018-10-11"
        },
        {
            "vote_count": 236,
            "id": 454992,
            "video": false,
            "vote_average": 6.6,
            "title": "The Spy Who Dumped Me",
            "popularity": 114.495,
            "poster_path": "/2lIr27lBdxCpzYDl6WUHzzD6l6H.jpg",
            "original_language": "en",
            "original_title": "The Spy Who Dumped Me",
            "genre_ids": [
                28,
                35,
                12
            ],
            "backdrop_path": "/3Ptt97kQLuJS37zwA4lkJAkr02m.jpg",
            "adult": false,
            "overview": "Audrey and Morgan are best friends who unwittingly become entangled in an international conspiracy when one of the women discovers the boyfriend who dumped her was actually a spy.",
            "release_date": "2018-08-02"
        },
        {
            "vote_count": 92,
            "id": 446894,
            "video": false,
            "vote_average": 6.5,
            "title": "Smallfoot",
            "popularity": 87.752,
            "poster_path": "/4nKoB6wMVXfsYgRZK5lHZ5VMQ6J.jpg",
            "original_language": "en",
            "original_title": "Smallfoot",
            "genre_ids": [
                35,
                16,
                10751,
                12,
                14
            ],
            "backdrop_path": "/7t88SoT3Dd8DhGnQuVoSbMNUl3W.jpg",
            "adult": false,
            "overview": "A bright young yeti finds something he thought didn't exist—a human. News of this “smallfoot” throws the simple yeti community into an uproar over what else might be out there in the big world beyond their snowy village.",
            "release_date": "2018-09-20"
        },
        {
            "vote_count": 123,
            "id": 347375,
            "video": false,
            "vote_average": 5.5,
            "title": "Mile 22",
            "popularity": 84.415,
            "poster_path": "/dT1XzjxRDR56xOm4Ph0INV4EmWJ.jpg",
            "original_language": "en",
            "original_title": "Mile 22",
            "genre_ids": [
                28
            ],
            "backdrop_path": "/eTwftrInxzZTSLUkX5hoifOczKJ.jpg",
            "adult": false,
            "overview": "A CIA field officer and an Indonesian police officer are forced to work together in confronting political corruption. An informant must be moved twenty-two miles to safety.",
            "release_date": "2018-08-16"
        },
        {
            "vote_count": 1224,
            "id": 345940,
            "video": false,
            "vote_average": 6,
            "title": "The Meg",
            "popularity": 82.422,
            "poster_path": "/eyWICPcxOuTcDDDbTMOZawoOn8d.jpg",
            "original_language": "en",
            "original_title": "The Meg",
            "genre_ids": [
                28,
                878,
                53
            ],
            "backdrop_path": "/rH79sB6Nkx4cMW3JzsUy7wK0rhX.jpg",
            "adult": false,
            "overview": "A deep sea submersible pilot revisits his past fears in the Mariana Trench, and accidentally unleashes the seventy foot ancestor of the Great White Shark believed to be extinct.",
            "release_date": "2018-08-09"
        },
        {
            "vote_count": 1022,
            "id": 447200,
            "video": false,
            "vote_average": 6.1,
            "title": "Skyscraper",
            "popularity": 82.323,
            "poster_path": "/5LYSsOPzuP13201qSzMjNxi8FxN.jpg",
            "original_language": "en",
            "original_title": "Skyscraper",
            "genre_ids": [
                28,
                53,
                18
            ],
            "backdrop_path": "/oMKFQmoVgB69fyXfSMu0lGlHJP2.jpg",
            "adult": false,
            "overview": "Framed and on the run, a former FBI agent must save his family from a blazing fire in the world's tallest building.",
            "release_date": "2018-07-11"
        },
        {
            "vote_count": 8588,
            "id": 284054,
            "video": false,
            "vote_average": 7.3,
            "title": "Black Panther",
            "popularity": 81.004,
            "poster_path": "/uxzzxijgPIY7slzFvMotPv8wjKA.jpg",
            "original_language": "en",
            "original_title": "Black Panther",
            "genre_ids": [
                28,
                12,
                14,
                878
            ],
            "backdrop_path": "/b6ZJZHUdMEFECvGiDpJjlfUWela.jpg",
            "adult": false,
            "overview": "King T'Challa returns home from America to the reclusive, technologically advanced African nation of Wakanda to serve as his country's new leader. However, T'Challa soon finds that he is challenged for the throne by factions within his own country as well as without. Using powers reserved to Wakandan kings, T'Challa assumes the Black Panther mantel to join with girlfriend Nakia, the queen-mother, his princess-kid sister, members of the Dora Milaje (the Wakandan 'special forces') and an American secret agent, to prevent Wakanda from being dragged into a world war.",
            "release_date": "2018-02-13"
        },
        {
            "vote_count": 70,
            "id": 424139,
            "video": false,
            "vote_average": 6.4,
            "title": "Halloween",
            "popularity": 79.824,
            "poster_path": "/lNkDYKmrVem1J0aAfCnQlJOCKnT.jpg",
            "original_language": "en",
            "original_title": "Halloween",
            "genre_ids": [
                27
            ],
            "backdrop_path": "/5x6OU39nZD5lDdydONaN2yoWYfJ.jpg",
            "adult": false,
            "overview": "Laurie Strode comes to her final confrontation with Michael Myers, the masked figure who has haunted her since she narrowly escaped his killing spree on Halloween night four decades ago.",
            "release_date": "2018-10-18"
        },
        {
            "vote_count": 75,
            "id": 446021,
            "video": false,
            "vote_average": 6.4,
            "title": "Bad Times at the El Royale",
            "popularity": 77.958,
            "poster_path": "/iNtFgXqXPRMkm1QO8CHn5sHfUgE.jpg",
            "original_language": "en",
            "original_title": "Bad Times at the El Royale",
            "genre_ids": [
                53,
                80,
                9648
            ],
            "backdrop_path": "/gb3TVVZNNxVGNfS1NxGaiWZfwnW.jpg",
            "adult": false,
            "overview": "Seven strangers, each with a secret to bury, meet at Lake Tahoe's El Royale, a rundown hotel with a dark past in 1969. Over the course of one fateful night, everyone will have a last shot at redemption.",
            "release_date": "2018-10-04"
        },
        {
            "vote_count": 197,
            "id": 439015,
            "video": false,
            "vote_average": 4.4,
            "title": "Slender Man",
            "popularity": 75.337,
            "poster_path": "/huSncs4RyvQDBmHjBBYHSBYJbSJ.jpg",
            "original_language": "en",
            "original_title": "Slender Man",
            "genre_ids": [
                9648,
                53
            ],
            "backdrop_path": "/5K0fgMaJSdEvqSsS8e3Ez4TpvXR.jpg",
            "adult": false,
            "overview": "In a small town in Massachusetts, four high school girls perform a ritual in an attempt to debunk the lore of Slender Man. When one of the girls goes mysteriously missing, they begin to suspect that she is, in fact, his latest victim.",
            "release_date": "2018-08-10"
        },
        {
            "vote_count": 3952,
            "id": 351286,
            "video": false,
            "vote_average": 6.5,
            "title": "Jurassic World: Fallen Kingdom",
            "popularity": 74.508,
            "poster_path": "/c9XxwwhPHdaImA2f1WEfEsbhaFB.jpg",
            "original_language": "en",
            "original_title": "Jurassic World: Fallen Kingdom",
            "genre_ids": [
                28,
                12,
                878,
                27
            ],
            "backdrop_path": "/3s9O5af2xWKWR5JzP2iJZpZeQQg.jpg",
            "adult": false,
            "overview": "Three years after the demise of Jurassic World, a volcanic eruption threatens the remaining dinosaurs on the isla Nublar, so Claire Dearing, the former park manager, recruits Owen Grady to help prevent the extinction of the dinosaurs once again.",
            "release_date": "2018-06-06"
        }
    ]
}
